waveform.vcd
$date
  Fri Dec 23 17:02:08 2022
$end
$version
  GHDL v0
$end
$timescale
  1 fs
$end
$var reg 1 ! clk $end
$var reg 1 " reset $end
$var reg 8 # pc_out[7:0] $end
$var reg 16 $ alu_out[15:0] $end
$scope module cpu1 $end
$var reg 1 % clk $end
$var reg 1 & reset $end
$var reg 8 ' pc_out[7:0] $end
$var reg 16 ( alu_out[15:0] $end
$var reg 1 ) alu_c $end
$var reg 1 * mem_ena $end
$var reg 1 + reg_ena $end
$var reg 1 , alu_ena $end
$var reg 3 - alu_s[2:0] $end
$var reg 3 . reg_write_address[2:0] $end
$var reg 3 / reg_read_address_1[2:0] $end
$var reg 3 0 reg_read_address_2[2:0] $end
$var reg 16 1 alu_b[15:0] $end
$var reg 16 2 alu_f[15:0] $end
$var reg 16 3 rdata1[15:0] $end
$var reg 16 4 rdata2[15:0] $end
$var reg 16 5 wdata[15:0] $end
$var reg 16 6 mem_r[15:0] $end
$var reg 16 7 inst[15:0] $end
$var reg 8 8 mem_address[7:0] $end
$var reg 8 9 pc[7:0] $end
$var reg 8 : cu_pc_next[7:0] $end
$var reg 1 ; waitting_exc $end
$var reg 1 < branch $end
$scope module regx $end
$var reg 1 = clk $end
$var reg 1 > regwrite $end
$var reg 3 ? rregister1[2:0] $end
$var reg 3 @ rregister2[2:0] $end
$var reg 3 A wregister[2:0] $end
$var reg 16 B wdata[15:0] $end
$var reg 16 C rdata1[15:0] $end
$var reg 16 D rdata2[15:0] $end
$comment array_reg is not handled $end
$upscope $end
$scope module memx $end
$var reg 1 E clk $end
$var reg 1 F memwrite $end
$var reg 8 G address[7:0] $end
$var reg 16 H wdata[15:0] $end
$var reg 16 I rdata[15:0] $end
$comment dm is not handled $end
$upscope $end
$scope module romx $end
$var reg 1 J clk $end
$var reg 8 K address[7:0] $end
$var reg 16 L data[15:0] $end
$comment im is not handled $end
$upscope $end
$scope module alux $end
$var reg 1 M e $end
$var reg 3 N s[2:0] $end
$var reg 16 O a[15:0] $end
$var reg 16 P b[15:0] $end
$var reg 16 Q f[15:0] $end
$var reg 1 R c $end
$upscope $end
$scope module cux $end
$var reg 1 S clk $end
$var reg 1 T branch $end
$var reg 8 U pc_next[7:0] $end
$var reg 16 V inst[15:0] $end
$var reg 3 W alu_s[2:0] $end
$var reg 16 X alu_b[15:0] $end
$var reg 16 Y alu_f[15:0] $end
$var reg 1 Z alu_c $end
$var reg 1 [ alu_ena $end
$var reg 8 \ mem_address[7:0] $end
$var reg 1 ] mem_ena $end
$var reg 16 ^ mem_r[15:0] $end
$var reg 16 _ reg_write[15:0] $end
$var reg 3 ` reg_write_address[2:0] $end
$var reg 3 a reg_read_address_1[2:0] $end
$var reg 3 b reg_read_address_2[2:0] $end
$var reg 16 c reg_rin[15:0] $end
$var reg 1 d reg_ena $end
$var reg 4 e op_code[3:0] $end
$var reg 3 f rs[2:0] $end
$var reg 3 g rt[2:0] $end
$var reg 3 h rd[2:0] $end
$var reg 3 i alu_func[2:0] $end
$var reg 16 j imm_arth[15:0] $end
$var reg 16 k imm_load[15:0] $end
$var reg 8 l ucbrach_address[7:0] $end
$var reg 8 m cbrach_address[7:0] $end
$var reg 3 n flag_reg[2:0] $end
$upscope $end
$upscope $end
$enddefinitions $end
#0
0!
1"
bUUUUUUUU #
bUUUUUUUUUUUUUUUU $
0%
1&
bUUUUUUUU '
bUUUUUUUUUUUUUUUU (
U)
0*
1+
0,
b001 -
b000 .
b000 /
b000 0
b0000000000000001 1
bZZZZZZZZZZZZZZZZ 2
bUUUUUUUUUUUUUUUU 3
bUUUUUUUUUUUUUUUU 4
b0000000000000001 5
bUUUUUUUUUUUUUUUU 6
b0111000000000001 7
b00000001 8
bUUUUUUUU 9
b00000001 :
U;
0<
0=
1>
b000 ?
b000 @
b000 A
b0000000000000001 B
bUUUUUUUUUUUUUUUU C
bUUUUUUUUUUUUUUUU D
0E
0F
b00000001 G
bUUUUUUUUUUUUUUUU H
bUUUUUUUUUUUUUUUU I
0J
bUUUUUUUU K
b0111000000000001 L
0M
b001 N
bUUUUUUUUUUUUUUUU O
b0000000000000001 P
bZZZZZZZZZZZZZZZZ Q
UR
0S
0T
b00000001 U
b0111000000000001 V
b001 W
b0000000000000001 X
bZZZZZZZZZZZZZZZZ Y
UZ
0[
b00000001 \
0]
bUUUUUUUUUUUUUUUU ^
b0000000000000001 _
b000 `
b000 a
b000 b
bUUUUUUUUUUUUUUUU c
1d
b0111 e
b000 f
b000 g
b000 h
b001 i
b0000000000000001 j
b0000000000000001 k
b00000001 l
b00000001 m
bUUU n
#250000
1!
1%
b0000000000000000 3
b0000000000000000 4
b0000000000000000 6
b00000000 9
0;
1=
b0000000000000000 C
b0000000000000000 D
1E
b0000000000000000 H
b0000000000000000 I
1J
b00000000 K
b0000000000000000 O
1S
b0000000000000000 ^
b0000000000000000 c
#500000
0!
0%
0=
0E
0J
0S
#750000
1!
1%
b0000000000000001 3
b0000000000000001 4
1=
b0000000000000001 C
b0000000000000001 D
1E
b0000000000000001 H
1J
b0000000000000001 O
1S
b0000000000000001 c
#1000000
0!
0"
0%
0&
0=
0E
0J
0S
#1250000
1!
1%
1;
1=
1E
1J
1S
#1500000
0!
0%
0=
0E
0J
0S
#1750000
1!
b00000000 #
bZZZZZZZZZZZZZZZZ $
1%
b00000000 '
bZZZZZZZZZZZZZZZZ (
b001 .
b001 /
b0000000000001111 1
b0000000000001111 5
b0111001000001111 7
b00001111 8
b00000001 9
b00001111 :
0;
1=
b001 ?
b001 A
b0000000000001111 B
1E
b00001111 G
1J
b00000001 K
b0111001000001111 L
b0000000000001111 P
1S
b00001111 U
b0111001000001111 V
b0000000000001111 X
b00001111 \
b0000000000001111 _
b001 `
b001 a
b001 f
b001 h
b111 i
b0000000000001111 j
b0000000000001111 k
b00001111 l
b00001111 m
#2000000
0!
0%
0=
0E
0J
0S
#2250000
1!
1%
b0000000000000000 3
1;
1=
b0000000000000000 C
1E
b0000000000000000 H
1J
b0000000000000000 O
1S
#2500000
0!
0%
0=
0E
0J
0S
#2750000
1!
b00000001 #
1%
b00000001 '
1,
b0000000000000001 1
b0000000000001110 2
b0000000000001111 3
b0000000000001110 5
b0001001000001001 7
b00001001 8
b00000010 9
b00001001 :
0;
1=
b0000000000001110 B
b0000000000001111 C
1E
b00001001 G
b0000000000001111 H
1J
b00000010 K
b0001001000001001 L
1M
b0000000000001111 O
b0000000000000001 P
b0000000000001110 Q
1S
b00001001 U
b0001001000001001 V
b0000000000000001 X
b0000000000001110 Y
1[
b00001001 \
b0000000000001110 _
b0001 e
b001 i
b0000000000001001 j
b0000000000001001 k
b00001001 l
b00001001 m
#3000000
0!
0%
0=
0E
0J
0S
#3250000
1!
1%
1;
1=
1E
1J
1S
b0U0 n
#3500000
0!
0%
0=
0E
0J
0S
#3750000
1!
b00000010 #
b0000000000001110 $
1%
b00000010 '
b0000000000001110 (
0+
0,
b000 .
b000 /
b0000000000000101 1
bZZZZZZZZZZZZZZZZ 2
b0000000000001110 3
bZZZZZZZZZZZZZZZZ 5
b1110000000000101 7
b00000101 8
b00000011 9
b00000101 :
0;
1=
0>
b000 ?
b000 A
bZZZZZZZZZZZZZZZZ B
b0000000000001110 C
1E
b00000101 G
b0000000000001110 H
1J
b00000011 K
b1110000000000101 L
0M
b0000000000001110 O
b0000000000000101 P
bZZZZZZZZZZZZZZZZ Q
1S
b00000101 U
b1110000000000101 V
b0000000000000101 X
bZZZZZZZZZZZZZZZZ Y
0[
b00000101 \
bZZZZZZZZZZZZZZZZ _
b000 `
b000 a
0d
b1110 e
b000 f
b000 h
b101 i
b0000000000000101 j
b0000000000000101 k
b00000101 l
b00000101 m
#4000000
0!
0%
0=
0E
0J
0S
#4250000
1!
1%
b0000000000000001 3
1;
1=
b0000000000000001 C
1E
b0000000000000001 H
1J
b0000000000000001 O
1S
#4500000
0!
0%
0=
0E
0J
0S
#4750000
1!
b00000011 #
bZZZZZZZZZZZZZZZZ $
1%
b00000011 '
bZZZZZZZZZZZZZZZZ (
b0000000000000010 1
b1111000000000010 7
b00000010 8
b00000100 9
b00000010 :
0;
1<
1=
1E
b00000010 G
1J
b00000100 K
b1111000000000010 L
b0000000000000010 P
1S
1T
b00000010 U
b1111000000000010 V
b0000000000000010 X
b00000010 \
b1111 e
b010 i
b0000000000000010 j
b0000000000000010 k
b00000010 l
b00000010 m
#5000000
0!
0%
0=
0E
0J
0S
#5250000
1!
1%
1+
1,
b001 .
b001 /
b0000000000000001 1
b0000000000000000 2
b0000000000000000 5
b0001001000001001 7
b00001001 8
b00000010 9
b00001001 :
0<
1=
1>
b001 ?
b001 A
b0000000000000000 B
1E
b00001001 G
1J
b00000010 K
b0001001000001001 L
1M
b0000000000000001 P
b0000000000000000 Q
1S
0T
b00001001 U
b0001001000001001 V
b0000000000000001 X
b0000000000000000 Y
1[
b00001001 \
b0000000000000000 _
b001 `
b001 a
1d
b0001 e
b001 f
b001 h
b001 i
b0000000000001001 j
b0000000000001001 k
b00001001 l
b00001001 m
#5500000
0!
0%
0=
0E
0J
0S
#5750000
1!
1%
b0000000000001101 2
b0000000000001110 3
b0000000000001101 5
1;
1=
b0000000000001101 B
b0000000000001110 C
1E
b0000000000001110 H
1J
b0000000000001110 O
b0000000000001101 Q
1S
b0000000000001101 Y
b0000000000001101 _
b0U1 n
#6000000
0!
0%
0=
0E
0J
0S
#6250000
1!
b00000010 #
b0000000000001101 $
1%
b00000010 '
b0000000000001101 (
0+
0,
b000 .
b000 /
b0000000000000101 1
bZZZZZZZZZZZZZZZZ 2
b0000000000000000 3
bZZZZZZZZZZZZZZZZ 5
b1110000000000101 7
b00000101 8
b00000011 9
b00000101 :
0;
1=
0>
b000 ?
b000 A
bZZZZZZZZZZZZZZZZ B
b0000000000000000 C
1E
b00000101 G
b0000000000000000 H
1J
b00000011 K
b1110000000000101 L
0M
b0000000000000000 O
b0000000000000101 P
bZZZZZZZZZZZZZZZZ Q
1S
b00000101 U
b1110000000000101 V
b0000000000000101 X
bZZZZZZZZZZZZZZZZ Y
0[
b00000101 \
bZZZZZZZZZZZZZZZZ _
b000 `
b000 a
0d
b1110 e
b000 f
b000 h
b101 i
b0000000000000101 j
b0000000000000101 k
b00000101 l
b00000101 m
b0U0 n
#6500000
0!
0%
0=
0E
0J
0S
#6750000
1!
1%
b0000000000000001 3
1;
1=
b0000000000000001 C
1E
b0000000000000001 H
1J
b0000000000000001 O
1S
#7000000
0!
0%
0=
0E
0J
0S
#7250000
1!
b00000011 #
bZZZZZZZZZZZZZZZZ $
1%
b00000011 '
bZZZZZZZZZZZZZZZZ (
b0000000000000010 1
b1111000000000010 7
b00000010 8
b00000100 9
b00000010 :
0;
1<
1=
1E
b00000010 G
1J
b00000100 K
b1111000000000010 L
b0000000000000010 P
1S
1T
b00000010 U
b1111000000000010 V
b0000000000000010 X
b00000010 \
b1111 e
b010 i
b0000000000000010 j
b0000000000000010 k
b00000010 l
b00000010 m
#7500000
0!
0%
0=
0E
0J
0S
#7750000
1!
1%
1+
1,
b001 .
b001 /
b0000000000000001 1
b0000000000000000 2
b0000000000000000 5
b0001001000001001 7
b00001001 8
b00000010 9
b00001001 :
0<
1=
1>
b001 ?
b001 A
b0000000000000000 B
1E
b00001001 G
1J
b00000010 K
b0001001000001001 L
1M
b0000000000000001 P
b0000000000000000 Q
1S
0T
b00001001 U
b0001001000001001 V
b0000000000000001 X
b0000000000000000 Y
1[
b00001001 \
b0000000000000000 _
b001 `
b001 a
1d
b0001 e
b001 f
b001 h
b001 i
b0000000000001001 j
b0000000000001001 k
b00001001 l
b00001001 m
#8000000
0!
0%
0=
0E
0J
0S
#8250000
1!
1%
b0000000000001100 2
b0000000000001101 3
b0000000000001100 5
1;
1=
b0000000000001100 B
b0000000000001101 C
1E
b0000000000001101 H
1J
b0000000000001101 O
b0000000000001100 Q
1S
b0000000000001100 Y
b0000000000001100 _
b0U1 n
#8500000
0!
0%
0=
0E
0J
0S
#8750000
1!
b00000010 #
b0000000000001100 $
1%
b00000010 '
b0000000000001100 (
0+
0,
b000 .
b000 /
b0000000000000101 1
bZZZZZZZZZZZZZZZZ 2
b0000000000000000 3
bZZZZZZZZZZZZZZZZ 5
b1110000000000101 7
b00000101 8
b00000011 9
b00000101 :
0;
1=
0>
b000 ?
b000 A
bZZZZZZZZZZZZZZZZ B
b0000000000000000 C
1E
b00000101 G
b0000000000000000 H
1J
b00000011 K
b1110000000000101 L
0M
b0000000000000000 O
b0000000000000101 P
bZZZZZZZZZZZZZZZZ Q
1S
b00000101 U
b1110000000000101 V
b0000000000000101 X
bZZZZZZZZZZZZZZZZ Y
0[
b00000101 \
bZZZZZZZZZZZZZZZZ _
b000 `
b000 a
0d
b1110 e
b000 f
b000 h
b101 i
b0000000000000101 j
b0000000000000101 k
b00000101 l
b00000101 m
b0U0 n
#9000000
0!
0%
0=
0E
0J
0S
#9250000
1!
1%
b0000000000000001 3
1;
1=
b0000000000000001 C
1E
b0000000000000001 H
1J
b0000000000000001 O
1S
#9500000
0!
0%
0=
0E
0J
0S
#9750000
1!
b00000011 #
bZZZZZZZZZZZZZZZZ $
1%
b00000011 '
bZZZZZZZZZZZZZZZZ (
b0000000000000010 1
b1111000000000010 7
b00000010 8
b00000100 9
b00000010 :
0;
1<
1=
1E
b00000010 G
1J
b00000100 K
b1111000000000010 L
b0000000000000010 P
1S
1T
b00000010 U
b1111000000000010 V
b0000000000000010 X
b00000010 \
b1111 e
b010 i
b0000000000000010 j
b0000000000000010 k
b00000010 l
b00000010 m
#10000000
0!
0%
0=
0E
0J
0S
#10250000
1!
1%
1+
1,
b001 .
b001 /
b0000000000000001 1
b0000000000000000 2
b0000000000000000 5
b0001001000001001 7
b00001001 8
b00000010 9
b00001001 :
0<
1=
1>
b001 ?
b001 A
b0000000000000000 B
1E
b00001001 G
1J
b00000010 K
b0001001000001001 L
1M
b0000000000000001 P
b0000000000000000 Q
1S
0T
b00001001 U
b0001001000001001 V
b0000000000000001 X
b0000000000000000 Y
1[
b00001001 \
b0000000000000000 _
b001 `
b001 a
1d
b0001 e
b001 f
b001 h
b001 i
b0000000000001001 j
b0000000000001001 k
b00001001 l
b00001001 m
#10500000
0!
0%
0=
0E
0J
0S
#10750000
1!
1%
b0000000000001011 2
b0000000000001100 3
b0000000000001011 5
1;
1=
b0000000000001011 B
b0000000000001100 C
1E
b0000000000001100 H
1J
b0000000000001100 O
b0000000000001011 Q
1S
b0000000000001011 Y
b0000000000001011 _
b0U1 n
#11000000
0!
0%
0=
0E
0J
0S
#11250000
1!
b00000010 #
b0000000000001011 $
1%
b00000010 '
b0000000000001011 (
0+
0,
b000 .
b000 /
b0000000000000101 1
bZZZZZZZZZZZZZZZZ 2
b0000000000000000 3
bZZZZZZZZZZZZZZZZ 5
b1110000000000101 7
b00000101 8
b00000011 9
b00000101 :
0;
1=
0>
b000 ?
b000 A
bZZZZZZZZZZZZZZZZ B
b0000000000000000 C
1E
b00000101 G
b0000000000000000 H
1J
b00000011 K
b1110000000000101 L
0M
b0000000000000000 O
b0000000000000101 P
bZZZZZZZZZZZZZZZZ Q
1S
b00000101 U
b1110000000000101 V
b0000000000000101 X
bZZZZZZZZZZZZZZZZ Y
0[
b00000101 \
bZZZZZZZZZZZZZZZZ _
b000 `
b000 a
0d
b1110 e
b000 f
b000 h
b101 i
b0000000000000101 j
b0000000000000101 k
b00000101 l
b00000101 m
b0U0 n
#11500000
0!
0%
0=
0E
0J
0S
#11750000
1!
1%
b0000000000000001 3
1;
1=
b0000000000000001 C
1E
b0000000000000001 H
1J
b0000000000000001 O
1S
#12000000
0!
0%
0=
0E
0J
0S
#12250000
1!
b00000011 #
bZZZZZZZZZZZZZZZZ $
1%
b00000011 '
bZZZZZZZZZZZZZZZZ (
b0000000000000010 1
b1111000000000010 7
b00000010 8
b00000100 9
b00000010 :
0;
1<
1=
1E
b00000010 G
1J
b00000100 K
b1111000000000010 L
b0000000000000010 P
1S
1T
b00000010 U
b1111000000000010 V
b0000000000000010 X
b00000010 \
b1111 e
b010 i
b0000000000000010 j
b0000000000000010 k
b00000010 l
b00000010 m
#12500000
0!
0%
0=
0E
0J
0S
#12750000
1!
1%
1+
1,
b001 .
b001 /
b0000000000000001 1
b0000000000000000 2
b0000000000000000 5
b0001001000001001 7
b00001001 8
b00000010 9
b00001001 :
0<
1=
1>
b001 ?
b001 A
b0000000000000000 B
1E
b00001001 G
1J
b00000010 K
b0001001000001001 L
1M
b0000000000000001 P
b0000000000000000 Q
1S
0T
b00001001 U
b0001001000001001 V
b0000000000000001 X
b0000000000000000 Y
1[
b00001001 \
b0000000000000000 _
b001 `
b001 a
1d
b0001 e
b001 f
b001 h
b001 i
b0000000000001001 j
b0000000000001001 k
b00001001 l
b00001001 m
#13000000
0!
0%
0=
0E
0J
0S
#13250000
1!
1%
b0000000000001010 2
b0000000000001011 3
b0000000000001010 5
1;
1=
b0000000000001010 B
b0000000000001011 C
1E
b0000000000001011 H
1J
b0000000000001011 O
b0000000000001010 Q
1S
b0000000000001010 Y
b0000000000001010 _
b0U1 n
#13500000
0!
0%
0=
0E
0J
0S
#13750000
1!
b00000010 #
b0000000000001010 $
1%
b00000010 '
b0000000000001010 (
0+
0,
b000 .
b000 /
b0000000000000101 1
bZZZZZZZZZZZZZZZZ 2
b0000000000000000 3
bZZZZZZZZZZZZZZZZ 5
b1110000000000101 7
b00000101 8
b00000011 9
b00000101 :
0;
1=
0>
b000 ?
b000 A
bZZZZZZZZZZZZZZZZ B
b0000000000000000 C
1E
b00000101 G
b0000000000000000 H
1J
b00000011 K
b1110000000000101 L
0M
b0000000000000000 O
b0000000000000101 P
bZZZZZZZZZZZZZZZZ Q
1S
b00000101 U
b1110000000000101 V
b0000000000000101 X
bZZZZZZZZZZZZZZZZ Y
0[
b00000101 \
bZZZZZZZZZZZZZZZZ _
b000 `
b000 a
0d
b1110 e
b000 f
b000 h
b101 i
b0000000000000101 j
b0000000000000101 k
b00000101 l
b00000101 m
b0U0 n
#14000000
0!
0%
0=
0E
0J
0S
#14250000
1!
1%
b0000000000000001 3
1;
1=
b0000000000000001 C
1E
b0000000000000001 H
1J
b0000000000000001 O
1S
#14500000
0!
0%
0=
0E
0J
0S
#14750000
1!
b00000011 #
bZZZZZZZZZZZZZZZZ $
1%
b00000011 '
bZZZZZZZZZZZZZZZZ (
b0000000000000010 1
b1111000000000010 7
b00000010 8
b00000100 9
b00000010 :
0;
1<
1=
1E
b00000010 G
1J
b00000100 K
b1111000000000010 L
b0000000000000010 P
1S
1T
b00000010 U
b1111000000000010 V
b0000000000000010 X
b00000010 \
b1111 e
b010 i
b0000000000000010 j
b0000000000000010 k
b00000010 l
b00000010 m
#15000000
0!
0%
0=
0E
0J
0S
#15250000
1!
1%
1+
1,
b001 .
b001 /
b0000000000000001 1
b0000000000000000 2
b0000000000000000 5
b0001001000001001 7
b00001001 8
b00000010 9
b00001001 :
0<
1=
1>
b001 ?
b001 A
b0000000000000000 B
1E
b00001001 G
1J
b00000010 K
b0001001000001001 L
1M
b0000000000000001 P
b0000000000000000 Q
1S
0T
b00001001 U
b0001001000001001 V
b0000000000000001 X
b0000000000000000 Y
1[
b00001001 \
b0000000000000000 _
b001 `
b001 a
1d
b0001 e
b001 f
b001 h
b001 i
b0000000000001001 j
b0000000000001001 k
b00001001 l
b00001001 m
#15500000
0!
0%
0=
0E
0J
0S
#15750000
1!
1%
b0000000000001001 2
b0000000000001010 3
b0000000000001001 5
1;
1=
b0000000000001001 B
b0000000000001010 C
1E
b0000000000001010 H
1J
b0000000000001010 O
b0000000000001001 Q
1S
b0000000000001001 Y
b0000000000001001 _
b0U1 n
#16000000
0!
0%
0=
0E
0J
0S
#16250000
1!
b00000010 #
b0000000000001001 $
1%
b00000010 '
b0000000000001001 (
0+
0,
b000 .
b000 /
b0000000000000101 1
bZZZZZZZZZZZZZZZZ 2
b0000000000000000 3
bZZZZZZZZZZZZZZZZ 5
b1110000000000101 7
b00000101 8
b00000011 9
b00000101 :
0;
1=
0>
b000 ?
b000 A
bZZZZZZZZZZZZZZZZ B
b0000000000000000 C
1E
b00000101 G
b0000000000000000 H
1J
b00000011 K
b1110000000000101 L
0M
b0000000000000000 O
b0000000000000101 P
bZZZZZZZZZZZZZZZZ Q
1S
b00000101 U
b1110000000000101 V
b0000000000000101 X
bZZZZZZZZZZZZZZZZ Y
0[
b00000101 \
bZZZZZZZZZZZZZZZZ _
b000 `
b000 a
0d
b1110 e
b000 f
b000 h
b101 i
b0000000000000101 j
b0000000000000101 k
b00000101 l
b00000101 m
b0U0 n
#16500000
0!
0%
0=
0E
0J
0S
#16750000
1!
1%
b0000000000000001 3
1;
1=
b0000000000000001 C
1E
b0000000000000001 H
1J
b0000000000000001 O
1S
#17000000
0!
0%
0=
0E
0J
0S
#17250000
1!
b00000011 #
bZZZZZZZZZZZZZZZZ $
1%
b00000011 '
bZZZZZZZZZZZZZZZZ (
b0000000000000010 1
b1111000000000010 7
b00000010 8
b00000100 9
b00000010 :
0;
1<
1=
1E
b00000010 G
1J
b00000100 K
b1111000000000010 L
b0000000000000010 P
1S
1T
b00000010 U
b1111000000000010 V
b0000000000000010 X
b00000010 \
b1111 e
b010 i
b0000000000000010 j
b0000000000000010 k
b00000010 l
b00000010 m
#17500000
0!
0%
0=
0E
0J
0S
#17750000
1!
1%
1+
1,
b001 .
b001 /
b0000000000000001 1
b0000000000000000 2
b0000000000000000 5
b0001001000001001 7
b00001001 8
b00000010 9
b00001001 :
0<
1=
1>
b001 ?
b001 A
b0000000000000000 B
1E
b00001001 G
1J
b00000010 K
b0001001000001001 L
1M
b0000000000000001 P
b0000000000000000 Q
1S
0T
b00001001 U
b0001001000001001 V
b0000000000000001 X
b0000000000000000 Y
1[
b00001001 \
b0000000000000000 _
b001 `
b001 a
1d
b0001 e
b001 f
b001 h
b001 i
b0000000000001001 j
b0000000000001001 k
b00001001 l
b00001001 m
#18000000
0!
0%
0=
0E
0J
0S
#18250000
1!
1%
b0000000000001000 2
b0000000000001001 3
b0000000000001000 5
1;
1=
b0000000000001000 B
b0000000000001001 C
1E
b0000000000001001 H
1J
b0000000000001001 O
b0000000000001000 Q
1S
b0000000000001000 Y
b0000000000001000 _
b0U1 n
#18500000
0!
0%
0=
0E
0J
0S
#18750000
1!
b00000010 #
b0000000000001000 $
1%
b00000010 '
b0000000000001000 (
0+
0,
b000 .
b000 /
b0000000000000101 1
bZZZZZZZZZZZZZZZZ 2
b0000000000000000 3
bZZZZZZZZZZZZZZZZ 5
b1110000000000101 7
b00000101 8
b00000011 9
b00000101 :
0;
1=
0>
b000 ?
b000 A
bZZZZZZZZZZZZZZZZ B
b0000000000000000 C
1E
b00000101 G
b0000000000000000 H
1J
b00000011 K
b1110000000000101 L
0M
b0000000000000000 O
b0000000000000101 P
bZZZZZZZZZZZZZZZZ Q
1S
b00000101 U
b1110000000000101 V
b0000000000000101 X
bZZZZZZZZZZZZZZZZ Y
0[
b00000101 \
bZZZZZZZZZZZZZZZZ _
b000 `
b000 a
0d
b1110 e
b000 f
b000 h
b101 i
b0000000000000101 j
b0000000000000101 k
b00000101 l
b00000101 m
b0U0 n
#19000000
0!
0%
0=
0E
0J
0S
#19250000
1!
1%
b0000000000000001 3
1;
1=
b0000000000000001 C
1E
b0000000000000001 H
1J
b0000000000000001 O
1S
#19500000
0!
0%
0=
0E
0J
0S
#19750000
1!
b00000011 #
bZZZZZZZZZZZZZZZZ $
1%
b00000011 '
bZZZZZZZZZZZZZZZZ (
b0000000000000010 1
b1111000000000010 7
b00000010 8
b00000100 9
b00000010 :
0;
1<
1=
1E
b00000010 G
1J
b00000100 K
b1111000000000010 L
b0000000000000010 P
1S
1T
b00000010 U
b1111000000000010 V
b0000000000000010 X
b00000010 \
b1111 e
b010 i
b0000000000000010 j
b0000000000000010 k
b00000010 l
b00000010 m
#20000000
0!
0%
0=
0E
0J
0S
#20250000
1!
1%
1+
1,
b001 .
b001 /
b0000000000000001 1
b0000000000000000 2
b0000000000000000 5
b0001001000001001 7
b00001001 8
b00000010 9
b00001001 :
0<
1=
1>
b001 ?
b001 A
b0000000000000000 B
1E
b00001001 G
1J
b00000010 K
b0001001000001001 L
1M
b0000000000000001 P
b0000000000000000 Q
1S
0T
b00001001 U
b0001001000001001 V
b0000000000000001 X
b0000000000000000 Y
1[
b00001001 \
b0000000000000000 _
b001 `
b001 a
1d
b0001 e
b001 f
b001 h
b001 i
b0000000000001001 j
b0000000000001001 k
b00001001 l
b00001001 m
#20500000
0!
0%
0=
0E
0J
0S
#20750000
1!
1%
b0000000000000111 2
b0000000000001000 3
b0000000000000111 5
1;
1=
b0000000000000111 B
b0000000000001000 C
1E
b0000000000001000 H
1J
b0000000000001000 O
b0000000000000111 Q
1S
b0000000000000111 Y
b0000000000000111 _
b0U1 n
#21000000
0!
0%
0=
0E
0J
0S
#21250000
1!
b00000010 #
b0000000000000111 $
1%
b00000010 '
b0000000000000111 (
0+
0,
b000 .
b000 /
b0000000000000101 1
bZZZZZZZZZZZZZZZZ 2
b0000000000000000 3
bZZZZZZZZZZZZZZZZ 5
b1110000000000101 7
b00000101 8
b00000011 9
b00000101 :
0;
1=
0>
b000 ?
b000 A
bZZZZZZZZZZZZZZZZ B
b0000000000000000 C
1E
b00000101 G
b0000000000000000 H
1J
b00000011 K
b1110000000000101 L
0M
b0000000000000000 O
b0000000000000101 P
bZZZZZZZZZZZZZZZZ Q
1S
b00000101 U
b1110000000000101 V
b0000000000000101 X
bZZZZZZZZZZZZZZZZ Y
0[
b00000101 \
bZZZZZZZZZZZZZZZZ _
b000 `
b000 a
0d
b1110 e
b000 f
b000 h
b101 i
b0000000000000101 j
b0000000000000101 k
b00000101 l
b00000101 m
b0U0 n
#21500000
0!
0%
0=
0E
0J
0S
#21750000
1!
1%
b0000000000000001 3
1;
1=
b0000000000000001 C
1E
b0000000000000001 H
1J
b0000000000000001 O
1S
#22000000
0!
0%
0=
0E
0J
0S
#22250000
1!
b00000011 #
bZZZZZZZZZZZZZZZZ $
1%
b00000011 '
bZZZZZZZZZZZZZZZZ (
b0000000000000010 1
b1111000000000010 7
b00000010 8
b00000100 9
b00000010 :
0;
1<
1=
1E
b00000010 G
1J
b00000100 K
b1111000000000010 L
b0000000000000010 P
1S
1T
b00000010 U
b1111000000000010 V
b0000000000000010 X
b00000010 \
b1111 e
b010 i
b0000000000000010 j
b0000000000000010 k
b00000010 l
b00000010 m
#22500000
0!
0%
0=
0E
0J
0S
#22750000
1!
1%
1+
1,
b001 .
b001 /
b0000000000000001 1
b0000000000000000 2
b0000000000000000 5
b0001001000001001 7
b00001001 8
b00000010 9
b00001001 :
0<
1=
1>
b001 ?
b001 A
b0000000000000000 B
1E
b00001001 G
1J
b00000010 K
b0001001000001001 L
1M
b0000000000000001 P
b0000000000000000 Q
1S
0T
b00001001 U
b0001001000001001 V
b0000000000000001 X
b0000000000000000 Y
1[
b00001001 \
b0000000000000000 _
b001 `
b001 a
1d
b0001 e
b001 f
b001 h
b001 i
b0000000000001001 j
b0000000000001001 k
b00001001 l
b00001001 m
#23000000
0!
0%
0=
0E
0J
0S
#23250000
1!
1%
b0000000000000110 2
b0000000000000111 3
b0000000000000110 5
1;
1=
b0000000000000110 B
b0000000000000111 C
1E
b0000000000000111 H
1J
b0000000000000111 O
b0000000000000110 Q
1S
b0000000000000110 Y
b0000000000000110 _
b0U1 n
#23500000
0!
0%
0=
0E
0J
0S
#23750000
1!
b00000010 #
b0000000000000110 $
1%
b00000010 '
b0000000000000110 (
0+
0,
b000 .
b000 /
b0000000000000101 1
bZZZZZZZZZZZZZZZZ 2
b0000000000000000 3
bZZZZZZZZZZZZZZZZ 5
b1110000000000101 7
b00000101 8
b00000011 9
b00000101 :
0;
1=
0>
b000 ?
b000 A
bZZZZZZZZZZZZZZZZ B
b0000000000000000 C
1E
b00000101 G
b0000000000000000 H
1J
b00000011 K
b1110000000000101 L
0M
b0000000000000000 O
b0000000000000101 P
bZZZZZZZZZZZZZZZZ Q
1S
b00000101 U
b1110000000000101 V
b0000000000000101 X
bZZZZZZZZZZZZZZZZ Y
0[
b00000101 \
bZZZZZZZZZZZZZZZZ _
b000 `
b000 a
0d
b1110 e
b000 f
b000 h
b101 i
b0000000000000101 j
b0000000000000101 k
b00000101 l
b00000101 m
b0U0 n
#24000000
0!
0%
0=
0E
0J
0S
#24250000
1!
1%
b0000000000000001 3
1;
1=
b0000000000000001 C
1E
b0000000000000001 H
1J
b0000000000000001 O
1S
#24500000
0!
0%
0=
0E
0J
0S
#24750000
1!
b00000011 #
bZZZZZZZZZZZZZZZZ $
1%
b00000011 '
bZZZZZZZZZZZZZZZZ (
b0000000000000010 1
b1111000000000010 7
b00000010 8
b00000100 9
b00000010 :
0;
1<
1=
1E
b00000010 G
1J
b00000100 K
b1111000000000010 L
b0000000000000010 P
1S
1T
b00000010 U
b1111000000000010 V
b0000000000000010 X
b00000010 \
b1111 e
b010 i
b0000000000000010 j
b0000000000000010 k
b00000010 l
b00000010 m
#25000000
0!
0%
0=
0E
0J
0S
#25250000
1!
1%
1+
1,
b001 .
b001 /
b0000000000000001 1
b0000000000000000 2
b0000000000000000 5
b0001001000001001 7
b00001001 8
b00000010 9
b00001001 :
0<
1=
1>
b001 ?
b001 A
b0000000000000000 B
1E
b00001001 G
1J
b00000010 K
b0001001000001001 L
1M
b0000000000000001 P
b0000000000000000 Q
1S
0T
b00001001 U
b0001001000001001 V
b0000000000000001 X
b0000000000000000 Y
1[
b00001001 \
b0000000000000000 _
b001 `
b001 a
1d
b0001 e
b001 f
b001 h
b001 i
b0000000000001001 j
b0000000000001001 k
b00001001 l
b00001001 m
